{
  "cdbpcs_project": {
    "COLUMNS": [
      {
        "DEFAULT": "", 
        "LENGTH": 10, 
        "NAME": "testpoc", 
        "NOTNULL": false, 
        "TYPE": 0
      }
    ]
  }, 
  "teile_stamm": {
    "COLUMNS": [
      {
        "DEFAULT": "", 
        "LENGTH": 10, 
        "NAME": "test", 
        "NOTNULL": false, 
        "TYPE": 0
      }
    ]
  }, 
  "zeichnung": {
    "COLUMNS": [
      {
        "DEFAULT": "", 
        "LENGTH": 10, 
        "NAME": "test1", 
        "NOTNULL": false, 
        "TYPE": 0
      }, 
      {
        "DEFAULT": "", 
        "LENGTH": 10, 
        "NAME": "test", 
        "NOTNULL": false, 
        "TYPE": 0
      }
    ]
  }
}